ass1msb104grp2
…
Data Acquisition

GDP per Region

#Removing the metadata from the top and bottom by defining the range.
raw_econ <- read_excel("./Data/GDP_noFlag.xlsx", sheet = "Sheet 1", range = "A8:Y464", col_types = "text")
#Dropping the first row to align time with years
  raw_econ <- raw_econ[-1,]
  names(raw_econ)[1] <- "Geo_Labels"
print(raw_econ)

# A tibble: 455 × 25
   Geo_Labels     `2000` `2001` `2002` `2003` `2004` `2005` `2006` `2007` `2008`
   <chr>          <chr>  <chr>  <chr>  <chr>  <chr>  <chr>  <chr>  <chr>  <chr> 
 1 Stuttgart, St… 35273… 38408… 39723… 41115… 40680… 39624… 42668… 44532… 42082…
 2 Böblingen      13867… 15260… 14664… 14967… 14478… 12993… 14904… 17899… 17315…
 3 Esslingen      14404… 15465… 14816… 15216… 15205… 15237… 16253… 17230… 17752…
 4 Göppingen      6000.… 6048.… 6099.… 6216.… 6158.… 6077.… 6366.… 6695.4 6850.…
 5 Ludwigsburg    14657… 15566… 15731… 15797… 15851… 16209… 17243… 18206… 18580…
 6 Rems-Murr-Kre… 10367… 10434… 10516… 10416… 10602… 10642… 11418… 11588… 11752…
 7 Heilbronn, St… 5273.… 5447.… 5279.… 4742.… 4796.… 4900.… 5104.… 5138.… 5258.…
 8 Heilbronn, La… 8453.… 8816.… 8749.… 9212.… 9436.… 9842.… 11048… 11650… 11985…
 9 Hohenlohekreis 3083.… 3182.… 3192.6 3208.… 3302.0 3402.4 3630.… 3894.… 3941.…
10 Schwäbisch Ha… 4503.… 4525.… 4716.… 4634.3 4795.… 5080.… 5338.… 5694.… 5890.…
# ℹ 445 more rows
# ℹ 15 more variables: `2009` <chr>, `2010` <chr>, `2011` <chr>, `2012` <chr>,
#   `2013` <chr>, `2014` <chr>, `2015` <chr>, `2016` <chr>, `2017` <chr>,
#   `2018` <chr>, `2019` <chr>, `2020` <chr>, `2021` <chr>, `2022` <chr>,
#   `2023` <chr>
…
#Removing the metadata from the top.
raw_demo <- read_excel("./Data/demo_noFlag.xlsx", sheet = "Sheet 1", range = "A10:Z487", col_types = "text")

New names:
• `TIME` -> `TIME...1`
• `TIME` -> `TIME...2`

#Dropping the first row to align time with years
  raw_demo <- raw_demo[-1,]
  names(raw_demo)[1] <- "Geo_Codes"
  names(raw_demo)[2] <- "Geo_Labels"
print(raw_demo)

# A tibble: 476 × 26
   Geo_Codes Geo_Labels  `2000` `2001` `2002` `2003` `2004` `2005` `2006` `2007`
   <chr>     <chr>       <chr>  <chr>  <chr>  <chr>  <chr>  <chr>  <chr>  <chr> 
 1 DE111     Stuttgart,… 582443 583874 587152 588477 589161 590657 592569 593923
 2 DE112     Böblingen   362048 364987 367830 370337 371678 372113 372155 372228
 3 DE113     Esslingen   497826 500666 505340 509495 511564 513105 514245 514108
 4 DE114     Göppingen   256136 256792 257651 258488 258707 258492 257783 256967
 5 DE115     Ludwigsburg 495443 497764 503229 507043 509681 511830 513317 513998
 6 DE116     Rems-Murr-… 407213 409296 412959 415764 416635 417463 417697 417609
 7 DE117     Heilbronn,… 119526 119305 120163 120683 120705 121320 121613 121384
 8 DE118     Heilbronn,… 317578 320955 324043 326229 327540 328866 329503 329979
 9 DE119     Hohenlohek… 106930 107754 108920 109519 109755 109756 109718 109717
10 DE11A     Schwäbisch… 184819 185728 186967 188229 188563 189041 189580 189346
# ℹ 466 more rows
# ℹ 16 more variables: `2008` <chr>, `2009` <chr>, `2010` <chr>, `2011` <chr>,
#   `2012` <chr>, `2013` <chr>, `2014` <chr>, `2015` <chr>, `2016` <chr>,
#   `2017` <chr>, `2018` <chr>, `2019` <chr>, `2020` <chr>, `2021` <chr>,
#   `2022` <chr>, `2023` <chr>
…
