Assignment 3:
…
Part B: Exploring Alternative Functional Forms

Part C: Testing for Heteroskedacity and Discussing Causality

Part D: Panel Estimates

Data Prep

# A tibble: 1,272 × 14
   NUTS2 Country Time  N2GDPSUM N2POPSUM N2GDPCAP Geo_Labels Pop_km2 Workforce
   <chr> <chr>   <chr>    <dbl>    <dbl>    <dbl> <chr>        <dbl>     <dbl>
 1 CH01  CH      2000        0   1294974       0  <NA>            NA        NA
 2 CH01  CH      2001        0   1303557       0  <NA>            NA        NA
 3 CH01  CH      2002        0   1317017       0  <NA>            NA        NA
 4 CH01  CH      2003        0   1331131       0  <NA>            NA        NA
 5 CH01  CH      2004        0   1348106       0  <NA>            NA        NA
 6 CH01  CH      2005        0   1362754       0  <NA>            NA        NA
 7 CH01  CH      2006        0   1376306       0  <NA>            NA        NA
 8 CH01  CH      2007        0   1389988       0  <NA>            NA        NA
 9 CH01  CH      2008    70043.  1408796   49718. <NA>            NA        NA
10 CH01  CH      2009    73176.  1437592   50902. <NA>            NA        NA
# ℹ 1,262 more rows
# ℹ 5 more variables: Unemp_prct <dbl>, Count <int>, gini <dbl>,
#   lagged_capita <dbl>, chg_gdpc <dbl>
…
